{
  "project_info": {
    "project_number": "225614369148",
    "project_id": "calculator-aaa63",
    "storage_bucket": "calculator-aaa63.appspot.com"
  },
  "client": [
    {
      "client_info": {
        "mobilesdk_app_id": "1:225614369148:android:46408e209b39270b0b14f9",
        "android_client_info": {
          "package_name": "com.calculator.calculator_project"
        }
      },
      "oauth_client": [
        {
          "client_id": "225614369148-3s07ajthpnh5v82hr5853r9g49215bm7.apps.googleusercontent.com",
          "client_type": 3
        }
      ],
      "api_key": [
        {
          "current_key": "AIzaSyBbfGn0zyelyI3HO0ZAj8SAITRo1a5ufJk"
        }
      ],
      "services": {
        "appinvite_service": {
          "other_platform_oauth_client": [
            {
              "client_id": "225614369148-3s07ajthpnh5v82hr5853r9g49215bm7.apps.googleusercontent.com",
              "client_type": 3
            }
          ]
        }
      }
    }
  ],
  "configuration_version": "1"
}